DSD Lab Project Files/DSD Lab 7/Array_4x4_ multiplier/Array_4x4_ multiplier.sim/sim_1/behav/xsim/simulate.log
Vivado Simulator 2018.2
Time resolution is 1 ps
Time: 0 | inp1 = 0000 | inp2 = 0000 | product = 00000000 (  0)
Time: 10000 | inp1 = 0001 | inp2 = 0001 | product = 00000001 (  1)
Time: 20000 | inp1 = 0010 | inp2 = 0010 | product = 00000100 (  4)
Time: 30000 | inp1 = 0011 | inp2 = 0011 | product = 00001001 (  9)
Time: 40000 | inp1 = 0100 | inp2 = 0100 | product = 00010000 ( 16)
Time: 50000 | inp1 = 0101 | inp2 = 0101 | product = 00011001 ( 25)
Time: 60000 | inp1 = 0110 | inp2 = 0110 | product = 00100100 ( 36)
Time: 70000 | inp1 = 0111 | inp2 = 0111 | product = 00110001 ( 49)
Time: 80000 | inp1 = 1000 | inp2 = 1000 | product = 01000000 ( 64)
Time: 90000 | inp1 = 1001 | inp2 = 1001 | product = 01010001 ( 81)
Time: 100000 | inp1 = 1010 | inp2 = 1010 | product = 01100100 (100)
Time: 110000 | inp1 = 1011 | inp2 = 1011 | product = 01111001 (121)
Time: 120000 | inp1 = 1100 | inp2 = 1100 | product = 10010000 (144)
Time: 130000 | inp1 = 1101 | inp2 = 1101 | product = 10101001 (169)
Time: 140000 | inp1 = 1110 | inp2 = 1110 | product = 11000100 (196)
Time: 150000 | inp1 = 1111 | inp2 = 1111 | product = 11100001 (225)
